%YAML 1.1
%TAG !u! tag:unity3d.com,2011:
--- !u!114 &11400000
MonoBehaviour:
  m_ObjectHideFlags: 0
  m_CorrespondingSourceObject: {fileID: 0}
  m_PrefabInstance: {fileID: 0}
  m_PrefabAsset: {fileID: 0}
  m_GameObject: {fileID: 0}
  m_Enabled: 1
  m_EditorHideFlags: 0
  m_Script: {fileID: 11500000, guid: bf28453fb351a9e489ec9f360f8cda38, type: 3}
  m_Name: GoblinData
  m_EditorClassIdentifier: 
  enemyName: "\u8C6A\u3076\u308A\u3093"
  maxHp: 30
  atk: 4
  def: 2
  exp: 10
  gold: 3
